{
  "id": "93cab7f6-c368-5e66-a702-571003344971",
  "customer_id": "fdeded4c-d916-5d57-aab3-19573a20b04b",
  "users": 35,
  "plan_id": "470ce472-5063-5c7c-8f31-05470d147c8c",
  "expiry": "2025-06-01",
  "created": "2018-03-26"
}
